{
  "time": "600",
  "hint": "You might have noticed, that running programs consumes data. In case you didn't, data amount is indicated in the bottom left corner, ya dummy. Now go ahead and do the same task, but this time get some data yourself. To do that you have to run data mining program, mine 3 data, then stop the program by long pressing it's icon in the computer's menu and run an attack program. This one is a little tricky, but you should be fine.",
  "programs": ["DataMiningProgram", "AttackProgram"],
  "player": {
    "name": "player"
  },
  "nodes": [
    {
      "id": "1",
      "position": {
        "x": "0",
        "y": "0",
        "z": "0.001"
      },
      "type": "blue",
      "owner": "player",
      "coreNumber": "1",
      "clockSpeed": "1",
      "RAM": "3",
      "HDD": "10",
      "links": [
        "2"
      ]
    },

    {
      "id": "2",
      "position": {
        "x": "3",
        "y": "0.001",
        "z": "0"
      },
      "type": "green",
      "owner": "",
      "coreNumber": "1",
      "clockSpeed": "1",
      "RAM": "1",
      "HDD": "0",
      "links": [
        "1"
      ]
    }
  ]
}